module gitlab.com/Fallion/shinkei-suijaku

go 1.13

require (
	github.com/EdlinOrg/prominentcolor v1.0.0
	github.com/davecgh/go-spew v1.1.1 // indirect
	github.com/lucasb-eyer/go-colorful v1.0.3 // indirect
	github.com/nfnt/resize v0.0.0-20180221191011-83c6a9932646 // indirect
	github.com/oliamb/cutter v0.2.2 // indirect
	github.com/stretchr/testify v1.4.0
)
